{
"page": 1,
"total_results": 20666,
"total_pages": 1034,
"results": [
{
"vote_count": 2291,
"id": 284053,
"video": false,
"vote_average": 7.5,
"title": "Thor: Ragnarok",
"popularity": 600.109413,
"poster_path": "/oSLd5GYGsiGgzDPKTwQh7wamO8t.jpg",
"original_language": "en",
"original_title": "Thor: Ragnarok",
"genre_ids": [
28,
12,
35,
14,
878
],
"backdrop_path": "/5wNUJs23rT5rTBacNyf5h83AynM.jpg",
"adult": false,
"overview": "Thor is imprisoned on the other side of the universe and finds himself in a race against time to get back to Asgard to stop Ragnarok, the prophecy of destruction to his homeworld and the end of Asgardian civilization, at the hands of an all-powerful new threat, the ruthless Hela.",
"release_date": "2017-10-25"
},
{
"vote_count": 144,
"id": 347882,
"video": false,
"vote_average": 5.5,
"title": "Sleight",
"popularity": 535.428313,
"poster_path": "/wridRvGxDqGldhzAIh3IcZhHT5F.jpg",
"original_language": "en",
"original_title": "Sleight",
"genre_ids": [
18,
53,
28,
878
],
"backdrop_path": "/2SEgJ0mHJ7TSdVDbkGU061tR33K.jpg",
"adult": false,
"overview": "A young street magician is left to take care of his little sister after his mother's passing and turns to drug dealing in the Los Angeles party scene to keep a roof over their heads. When he gets into trouble with his supplier, his sister is kidnapped and he is forced to rely on both his sleight of hand and brilliant mind to save her.",
"release_date": "2017-04-28"
},
{
"vote_count": 1425,
"id": 141052,
"video": false,
"vote_average": 6.7,
"title": "Justice League",
"popularity": 501.943388,
"poster_path": "/9rtrRGeRnL0JKtu9IMBWsmlmmZz.jpg",
"original_language": "en",
"original_title": "Justice League",
"genre_ids": [
28,
12,
14,
878
],
"backdrop_path": "/o5T8rZxoWSBMYwjsUFUqTt6uMQB.jpg",
"adult": false,
"overview": "Fueled by his restored faith in humanity and inspired by Superman's selfless act, Bruce Wayne and Diana Prince assemble a team of metahumans consisting of Barry Allen, Arthur Curry, and Victor Stone to face the catastrophic threat of Steppenwolf and the Parademons who are on the hunt for three Mother Boxes on Earth.",
"release_date": "2017-11-15"
},
{
"vote_count": 6256,
"id": 297762,
"video": false,
"vote_average": 7.2,
"title": "Wonder Woman",
"popularity": 279.751346,
"poster_path": "/imekS7f1OuHyUP2LAiTEM0zBzUz.jpg",
"original_language": "en",
"original_title": "Wonder Woman",
"genre_ids": [
28,
12,
14
],
"backdrop_path": "/6iUNJZymJBMXXriQyFZfLAKnjO6.jpg",
"adult": false,
"overview": "An Amazon princess comes to the world of Man to become the greatest of the female superheroes.",
"release_date": "2017-05-30"
},
{
"vote_count": 6675,
"id": 177572,
"video": false,
"vote_average": 7.8,
"title": "Big Hero 6",
"popularity": 219.343204,
"poster_path": "/9gLu47Zw5ertuFTZaxXOvNfy78T.jpg",
"original_language": "en",
"original_title": "Big Hero 6",
"genre_ids": [
12,
10751,
16,
28,
35
],
"backdrop_path": "/2BXd0t9JdVqCp9sKf6kzMkr7QjB.jpg",
"adult": false,
"overview": "The special bond that develops between plus-sized inflatable robot Baymax, and prodigy Hiro Hamada, who team up with a group of friends to form a band of high-tech heroes.",
"release_date": "2014-10-24"
},
{
"vote_count": 4981,
"id": 315635,
"video": false,
"vote_average": 7.3,
"title": "Spider-Man: Homecoming",
"popularity": 217.063946,
"poster_path": "/ApYhuwBWzl29Oxe9JJsgL7qILbD.jpg",
"original_language": "en",
"original_title": "Spider-Man: Homecoming",
"genre_ids": [
28,
12,
35,
878
],
"backdrop_path": "/vc8bCGjdVp0UbMNLzHnHSLRbBWQ.jpg",
"adult": false,
"overview": "Following the events of Captain America: Civil War, Peter Parker, with the help of his mentor Tony Stark, tries to balance his life as an ordinary high school student in Queens, New York City, with fighting crime as his superhero alter ego Spider-Man as a new threat, the Vulture, emerges.",
"release_date": "2017-07-05"
},
{
"vote_count": 1439,
"id": 343668,
"video": false,
"vote_average": 7.2,
"title": "Kingsman: The Golden Circle",
"popularity": 190.189178,
"poster_path": "/34xBL6BXNYFqtHO9zhcgoakS4aP.jpg",
"original_language": "en",
"original_title": "Kingsman: The Golden Circle",
"genre_ids": [
28,
12,
35
],
"backdrop_path": "/uExPmkOHJySrbJyJDJylHDqaT58.jpg",
"adult": false,
"overview": "When an attack on the Kingsman headquarters takes place and a new villain rises, Eggsy and Merlin are forced to work together with the American agency known as the Statesman to save the world.",
"release_date": "2017-09-20"
},
{
"vote_count": 5956,
"id": 245891,
"video": false,
"vote_average": 7,
"title": "John Wick",
"popularity": 171.798797,
"poster_path": "/5vHssUeVe25bMrof1HyaPyWgaP.jpg",
"original_language": "en",
"original_title": "John Wick",
"genre_ids": [
28,
53
],
"backdrop_path": "/umC04Cozevu8nn3JTDJ1pc7PVTn.jpg",
"adult": false,
"overview": "Ex-hitman John Wick comes out of retirement to track down the gangsters that took everything from him.",
"release_date": "2014-10-22"
},
{
"vote_count": 1368,
"id": 339964,
"video": false,
"vote_average": 6.7,
"title": "Valerian and the City of a Thousand Planets",
"popularity": 161.778286,
"poster_path": "/vlc95gl3PtrjxSEuM8RhTtSm2xU.jpg",
"original_language": "en",
"original_title": "Valerian and the City of a Thousand Planets",
"genre_ids": [
12,
878,
28
],
"backdrop_path": "/o6OhxtsgMurL4h68Uqei0aSPMNr.jpg",
"adult": false,
"overview": "In the 28th century, Valerian and Laureline are special operatives charged with keeping order throughout the human territories. On assignment from the Minister of Defense, the two undertake a mission to Alpha, an ever-expanding metropolis where species from across the universe have converged over centuries to share knowledge, intelligence, and cultures. At the center of Alpha is a mysterious dark force which threatens the peaceful existence of the City of a Thousand Planets, and Valerian and Laureline must race to identify the menace and safeguard not just Alpha, but the future of the universe.",
"release_date": "2017-07-20"
},
{
"vote_count": 1416,
"id": 341013,
"video": false,
"vote_average": 6,
"title": "Atomic Blonde",
"popularity": 158.522769,
"poster_path": "/kV9R5h0Yct1kR8Hf8sJ1nX0Vz4x.jpg",
"original_language": "en",
"original_title": "Atomic Blonde",
"genre_ids": [
53,
9648,
28
],
"backdrop_path": "/lj3wkYkJGkfmDfXkKrVarSJpFD4.jpg",
"adult": false,
"overview": "An undercover MI6 agent is sent to Berlin during the Cold War to investigate the murder of a fellow agent and recover a missing list of double agents.",
"release_date": "2017-07-26"
},
{
"vote_count": 3376,
"id": 166426,
"video": false,
"vote_average": 6.6,
"title": "Pirates of the Caribbean: Dead Men Tell No Tales",
"popularity": 128.56071,
"poster_path": "/xbpSDU3p7YUGlu9Mr6Egg2Vweto.jpg",
"original_language": "en",
"original_title": "Pirates of the Caribbean: Dead Men Tell No Tales",
"genre_ids": [
12,
28,
14,
35
],
"backdrop_path": "/7C921eWK06n12c1miRXnYoEu5Yv.jpg",
"adult": false,
"overview": "Thrust into an all-new adventure, a down-on-his-luck Capt. Jack Sparrow feels the winds of ill-fortune blowing even more strongly when deadly ghost sailors led by his old nemesis, the evil Capt. Salazar, escape from the Devil's Triangle. Jack's only hope of survival lies in seeking out the legendary Trident of Poseidon, but to find it, he must forge an uneasy alliance with a brilliant and beautiful astronomer and a headstrong young man in the British navy.",
"release_date": "2017-05-23"
},
{
"vote_count": 2870,
"id": 339403,
"video": false,
"vote_average": 7.3,
"title": "Baby Driver",
"popularity": 121.068187,
"poster_path": "/dN9LbVNNZFITwfaRjl4tmwGWkRg.jpg",
"original_language": "en",
"original_title": "Baby Driver",
"genre_ids": [
28,
80
],
"backdrop_path": "/goCvLSUFz0p7k8R10Hv4CVh3EQv.jpg",
"adult": false,
"overview": "After being coerced into working for a crime boss, a young getaway driver finds himself taking part in a heist doomed to fail.",
"release_date": "2017-06-28"
},
{
"vote_count": 74,
"id": 395458,
"video": false,
"vote_average": 4.4,
"title": "Suburbicon",
"popularity": 106.59291,
"poster_path": "/a3IHgSwO5jWPLcGjKqbQ7pxVGkq.jpg",
"original_language": "en",
"original_title": "Suburbicon",
"genre_ids": [
35,
80,
18,
28,
9648
],
"backdrop_path": "/egHeYqgrutiRAzGGWTKp3zqUw0j.jpg",
"adult": false,
"overview": "A crime mystery set in the quiet family town of Suburbicon during the 1950s, where the best and worst of humanity is hilariously reflected through the deeds of seemingly ordinary people. When a home invasion turns deadly, a picture-perfect family turns to blackmail, revenge, and murder.",
"release_date": "2017-10-26"
},
{
"vote_count": 1185,
"id": 353491,
"video": false,
"vote_average": 5.6,
"title": "The Dark Tower",
"popularity": 96.153695,
"poster_path": "/i9GUSgddIqrroubiLsvvMRYyRy0.jpg",
"original_language": "en",
"original_title": "The Dark Tower",
"genre_ids": [
28,
14,
27,
878,
37
],
"backdrop_path": "/pVVobDO8cezhVPvwD6EBUN0g3mt.jpg",
"adult": false,
"overview": "The last Gunslinger, Roland Deschain, has been locked in an eternal battle with Walter O’Dim, also known as the Man in Black, determined to prevent him from toppling the Dark Tower, which holds the universe together. With the fate of the worlds at stake, good and evil will collide in the ultimate battle as only Roland can defend the Tower from the Man in Black.",
"release_date": "2017-08-03"
},
{
"vote_count": 6429,
"id": 284052,
"video": false,
"vote_average": 7.1,
"title": "Doctor Strange",
"popularity": 94.106851,
"poster_path": "/4PiiNGXj1KENTmCBHeN6Mskj2Fq.jpg",
"original_language": "en",
"original_title": "Doctor Strange",
"genre_ids": [
28,
12,
14,
878
],
"backdrop_path": "/tFI8VLMgSTTU38i8TIsklfqS9Nl.jpg",
"adult": false,
"overview": "After his career is destroyed, a brilliant but arrogant surgeon gets a new lease on life when a sorcerer takes him under his wing and trains him to defend the world against evil.",
"release_date": "2016-10-25"
},
{
"vote_count": 8329,
"id": 297761,
"video": false,
"vote_average": 5.9,
"title": "Suicide Squad",
"popularity": 79.247086,
"poster_path": "/e1mjopzAS2KNsvpbpahQ1a6SkSn.jpg",
"original_language": "en",
"original_title": "Suicide Squad",
"genre_ids": [
28,
12,
80,
14,
878
],
"backdrop_path": "/34dxtTxMHGKw1njHpTjDqR8UBHd.jpg",
"adult": false,
"overview": "From DC Comics comes the Suicide Squad, an antihero team of incarcerated supervillains who act as deniable assets for the United States government, undertaking high-risk black ops missions in exchange for commuted prison sentences.",
"release_date": "2016-08-02"
},
{
"vote_count": 875,
"id": 146198,
"video": false,
"vote_average": 5.6,
"title": "Triple 9",
"popularity": 78.420988,
"poster_path": "/dwRHF43p50wLIYAIxrUhLkK3jCI.jpg",
"original_language": "en",
"original_title": "Triple 9",
"genre_ids": [
28,
53
],
"backdrop_path": "/ukzyU2MKa8itOy64ReC36tvuVcT.jpg",
"adult": false,
"overview": "A gang of criminals and corrupt cops plan the murder of a police officer in order to pull off their biggest heist yet across town.",
"release_date": "2016-02-19"
},
{
"vote_count": 2814,
"id": 315837,
"video": false,
"vote_average": 5.9,
"title": "Ghost in the Shell",
"popularity": 75.419848,
"poster_path": "/myRzRzCxdfUWjkJWgpHHZ1oGkJd.jpg",
"original_language": "en",
"original_title": "Ghost in the Shell",
"genre_ids": [
28,
878,
53
],
"backdrop_path": "/jGPSVArC0GS2VVc0aGAqGTjfFOG.jpg",
"adult": false,
"overview": "In the near future, Major is the first of her kind: a human saved from a terrible crash, then cyber-enhanced to be a perfect soldier devoted to stopping the world's most dangerous criminals.",
"release_date": "2017-03-29"
},
{
"vote_count": 3,
"id": 181808,
"video": false,
"vote_average": 5.3,
"title": "Star Wars: The Last Jedi",
"popularity": 74.594628,
"poster_path": "/xGWVjewoXnJhvxKW619cMzppJDQ.jpg",
"original_language": "en",
"original_title": "Star Wars: The Last Jedi",
"genre_ids": [
28,
12,
14,
878
],
"backdrop_path": "/c4Dw37VZjBmObmJw9bmt8IDwMZH.jpg",
"adult": false,
"overview": "Having taken her first steps into a larger world, Rey continues her epic journey with Finn, Poe and Luke Skywalker in the next chapter of the Star Wars saga.",
"release_date": "2017-12-13"
},
{
"vote_count": 5704,
"id": 283995,
"video": false,
"vote_average": 7.6,
"title": "Guardians of the Galaxy Vol. 2",
"popularity": 68.808971,
"poster_path": "/y4MBh0EjBlMuOzv9axM4qJlmhzz.jpg",
"original_language": "en",
"original_title": "Guardians of the Galaxy Vol. 2",
"genre_ids": [
28,
12,
35,
878
],
"backdrop_path": "/aJn9XeesqsrSLKcHfHP4u5985hn.jpg",
"adult": false,
"overview": "The Guardians must fight to keep their newfound family together as they unravel the mysteries of Peter Quill's true parentage.",
"release_date": "2017-04-19"
}
]
}
